{"search":{"query":"quran","total_results":111,"current_page":1,"total_pages":111,"results":[{"verse_key":"38:1","verse_id":3971,"text":" صٓ ۚ وَٱلْقُرْءَانِ ذِى ٱلذِّكْرِ","highlighted":null,"words":[{"char_type":"word","text":"صٓۚ"},{"char_type":"word","text":"وَٱلۡقُرۡءَانِ"},{"char_type":"word","text":"ذِي"},{"char_type":"word","text":"ٱلذِّكۡرِ"},{"char_type":"end","text":"١"}],"translations":[{"text":"Sâd.\r\n[These letters (Sâd etc.) are one of the miracles of the <em>Quran</em> and none but Allah (Alone) knows their meanings]. By the <em>Quran</em> full of reminding.","resource_id":203,"name":"Al-Hilali & Khan","language_name":"english"}]}]}}
